[{
	"name": "config_percent_gett_percent",
	"title": "процент"
}, {
	"name": "config_percent_gett_date_begin",
	"title": "начало действия"
}, {
	"name": "config_percent_gett_date_end",
	"title": "окончание действия"
}, {
	"name": "employee_name_last",
	"title": "выставил"
}]