[{
	"name": "config_driver_payout_day_of_week",
	"title": "день недели"
}, {
	"name": "config_driver_payout_time",
	"title": "время"
}, {
	"name": "config_driver_payout_date_begin",
	"title": "начало действия"
}, {
	"name": "config_driver_payout_date_end",
	"title": "окончание действия"
}, {
	"name": "employee_name_last",
	"title": "выставил"
}]