[{
	"name": "config_timezone_from_moscow",
	"title": "разница с Москвой"
}, {
	"name": "config_timezone_date_begin",
	"title": "начало действия"
}, {
	"name": "config_timezone_date_end",
	"title": "окончание действия"
}, {
	"name": "employee_name_last",
	"title": "выставил"
}]