[{
	"name": "driver_payout_report_datetime_begin",
	"title": "Дата начала ведомости"
},{
	"name": "driver_payout_report_datetime_end",
	"title": "Дата конца ведомости"
},{
	"name": "driver_type_text",
	"title": "Тип водителя"
}, {
	"name": "driver_name_first",
	"title": "Фамилия"
}, {
	"name": "driver_name_name",
	"title": "Имя"
}, {
	"name": "driver_name_last",
	"title": "Отчество"
}, {
	"name": "driver_payout_report_total_orders",
	"title": "Количество заказов"
}, {
	"name": "driver_payout_report_sum_orders",
	"title": "Сумма заказов"
}, {
	"name": "driver_payout_report_sum_pay_driver",
	"title": "К выдаче"
},{
	"name" : "driver_payout_report_status_status_text",
	"title" : "Статус ведомости"
},{
	"name" : "driver_payout_report_id",
	"title" : "",
	"visible": false,
	"filterable": false
},{
	"name" : "driver_payout_report_url",
	"title" : "",
	"visible": false,
	"filterable": false
}]