[
{
    "name": "vehicle",
    "title": "Автомобиль"
},
{
    "name": "jan27",
    "title": "27-янв"
},
{
    "name": "jan28",
    "title": "28-янв"
},
{
    "name": "jan29",
    "title": "29-янв"
},
{
    "name": "jan30",
    "title": "30-янв"
},
{
    "name": "jan31",
    "title": "31-янв"
},
{
    "name": "feb01",
    "title": "01-фев"
},
{
    "name": "feb02",
    "title": "02-фев"
}
]

